Assignment3
…
Residuals visual inspection:

## # A tibble: 53,929 x 10
##    cut       color clarity depth table     x     y     z logprice logcarat
##    <chr>     <chr> <chr>   <dbl> <dbl> <dbl> <dbl> <dbl>    <dbl>    <dbl>
##  1 Ideal     E     SI2      61.5    55  3.95  3.98  2.43     5.79   -1.19 
##  2 Premium   E     SI1      59.8    61  3.89  3.84  2.31     5.79   -1.24 
##  3 Good      E     VS1      56.9    65  4.05  4.07  2.31     5.79   -1.19 
##  4 Premium   I     VS2      62.4    58  4.2   4.23  2.63     5.81   -1.03 
##  5 Good      J     SI2      63.3    58  4.34  4.35  2.75     5.81   -0.986
##  6 Very Good J     VVS2     62.8    57  3.94  3.96  2.48     5.82   -1.16 
##  7 Very Good I     VVS1     62.3    57  3.95  3.98  2.47     5.82   -1.16 
##  8 Very Good H     SI1      61.9    55  4.07  4.11  2.53     5.82   -1.11 
##  9 Fair      E     VS2      65.1    61  3.87  3.78  2.49     5.82   -1.21 
## 10 Very Good H     VS1      59.4    61  4     4.05  2.39     5.82   -1.19 
## # ... with 53,919 more rows
…
Now working with carat as a categorical feature:

data_2 <- data_cooks
data_2$size <- ifelse(exp(data_2$logcarat) < 0.3 , "small",
                    ifelse(exp(data_2$logcarat)> 1, "large", "medium"))
data_2$logcarat <- NULL
data_2

## # A tibble: 53,904 x 10
##    cut       color clarity depth table     x     y     z logprice size  
##    <chr>     <chr> <chr>   <dbl> <dbl> <dbl> <dbl> <dbl>    <dbl> <chr> 
##  1 Ideal     E     SI2      61.5    55  3.95  3.98  2.43     5.79 medium
##  2 Premium   E     SI1      59.8    61  3.89  3.84  2.31     5.79 small 
##  3 Good      E     VS1      56.9    65  4.05  4.07  2.31     5.79 medium
##  4 Premium   I     VS2      62.4    58  4.2   4.23  2.63     5.81 medium
##  5 Good      J     SI2      63.3    58  4.34  4.35  2.75     5.81 medium
##  6 Very Good J     VVS2     62.8    57  3.94  3.96  2.48     5.82 medium
##  7 Very Good I     VVS1     62.3    57  3.95  3.98  2.47     5.82 medium
##  8 Very Good H     SI1      61.9    55  4.07  4.11  2.53     5.82 medium
##  9 Fair      E     VS2      65.1    61  3.87  3.78  2.49     5.82 small 
## 10 Very Good H     VS1      59.4    61  4     4.05  2.39     5.82 medium
## # ... with 53,894 more rows
…
